4 Data-generating process functions – Improving your statistical inferences through Monte Carlo simulations
…
# generate data for the intervention group
data_intervention <- tibble(
  id = (n_per_condition + 1):(2 * n_per_condition), # this ensures that the IDs don't overlap with those in control condition
  condition = "intervention",
  score = rnorm(n_per_condition, mean = mean_intervention, sd = sd)
)

dat <- bind_rows(data_control, data_intervention)

dat

# A tibble: 100 × 3
      id condition  score
   <int> <chr>      <dbl>
 1     1 control   -0.626
 2     2 control    0.184
 3     3 control   -0.836
 4     4 control    1.60 
 5     5 control    0.330
 6     6 control   -0.820
 7     7 control    0.487
 8     8 control    0.738
 9     9 control    0.576
10    10 control   -0.305
# ℹ 90 more rows
…
Now let’s call the generate_data_two_group function and see if it works:

Code

set.seed(1)

generate_data_two_group(
  n_per_condition = 50,
  mean_control = 0,
  mean_intervention = 0.3,
  sd = 1
)

# A tibble: 100 × 3
      id condition  score
   <int> <chr>      <dbl>
 1     1 control   -0.626
 2     2 control    0.184
 3     3 control   -0.836
 4     4 control    1.60 
 5     5 control    0.330
 6     6 control   -0.820
 7     7 control    0.487
 8     8 control    0.738
 9     9 control    0.576
10    10 control   -0.305
# ℹ 90 more rows
…
Code

set.seed(1)

data_pre_post <- generate_data_pre_post(
  n = 50,
  mean_pre = 0,
  mean_post = 0.5,
  sd = 1,
  cor_pre_post = 0.7
)

data_pre_post

# A tibble: 50 × 3
      id score_pre score_post
   <int>     <dbl>      <dbl>
 1     1    -0.732     0.0766
 2     2     0.406     0.432 
 3     3    -0.903    -0.138 
 4     4     1.91      1.53  
 5     5    -0.251     1.36  
 6     6    -1.52      0.511 
 7     7     0.592     0.807 
 8     8     1.09      0.776 
 9     9     0.310     1.25  
10    10    -0.229     0.166 
# ℹ 40 more rows
…
  return(dat)
}

Let’s run this function where we assume 100 participants completed 10 items, each item having a mean of 0, SD of 1, and a correlation with the other items of 0.5:

Code

generate_data_scale_score(n = 100, 
                          mean = 0, 
                          sd = 1, 
                          n_items = 10,
                          r = 0.5)

# A tibble: 100 × 11
      id variable1 variable2 variable3 variable4 variable5 variable6 variable7
   <int>     <dbl>     <dbl>     <dbl>     <dbl>     <dbl>     <dbl>     <dbl>
 1     1     0.169    0.0189   -0.0937    0.0303    0.0310    -0.103    0.0175
 2     2     0.169    0.0189   -0.0937    0.0303    0.0310    -0.103    0.0175
 3     3     0.169    0.0189   -0.0937    0.0303    0.0310    -0.103    0.0175
 4     4     0.169    0.0189   -0.0937    0.0303    0.0310    -0.103    0.0175
 5     5     0.169    0.0189   -0.0937    0.0303    0.0310    -0.103    0.0175
 6     6     0.169    0.0189   -0.0937    0.0303    0.0310    -0.103    0.0175
 7     7     0.169    0.0189   -0.0937    0.0303    0.0310    -0.103    0.0175
 8     8     0.169    0.0189   -0.0937    0.0303    0.0310    -0.103    0.0175
 9     9     0.169    0.0189   -0.0937    0.0303    0.0310    -0.103    0.0175
10    10     0.169    0.0189   -0.0937    0.0303    0.0310    -0.103    0.0175
# ℹ 90 more rows
# ℹ 3 more variables: variable8 <dbl>, variable9 <dbl>, variable10 <dbl>
…
